Modeling
…
We run the workflow on the cross-validation folds using the grid of parameters

# Tune the model
tree_fits <- tree_wkf |>
  tune_grid(
    resamples = cv_folds,
    grid = tree_grid,
    metrics = metrics_eval
  )

# Collect metrics
tree_fits |>
  collect_metrics()

# A tibble: 25 × 8
   cost_complexity tree_depth .metric     .estimator  mean     n std_err .config
             <dbl>      <int> <chr>       <chr>      <dbl> <int>   <dbl> <chr>  
 1    0.0000000001          1 mn_log_loss binary     0.404     5 9.73e-6 pre0_m…
 2    0.0000000001          4 mn_log_loss binary     0.394     5 9.45e-3 pre0_m…
 3    0.0000000001          8 mn_log_loss binary     0.332     5 1.91e-3 pre0_m…
 4    0.0000000001         11 mn_log_loss binary     0.328     5 1.19e-3 pre0_m…
 5    0.0000000001         15 mn_log_loss binary     0.336     5 1.66e-3 pre0_m…
 6    0.0000000178          1 mn_log_loss binary     0.404     5 9.73e-6 pre0_m…
 7    0.0000000178          4 mn_log_loss binary     0.394     5 9.45e-3 pre0_m…
 8    0.0000000178          8 mn_log_loss binary     0.332     5 1.91e-3 pre0_m…
 9    0.0000000178         11 mn_log_loss binary     0.328     5 1.19e-3 pre0_m…
10    0.0000000178         15 mn_log_loss binary     0.336     5 1.66e-3 pre0_m…
# ℹ 15 more rows
…
